##TEST_AWK10|11
0
##TEST_AWK[0-9][0-9]:[0-9][0-9]:[0-9][0-9]
##TEST_AWK10|11
0
##TEST_AWK[0-9][0-9]:[0-9][0-9]:[0-9][0-9]
##TEST_AWK10|11
0
##TEST_AWK[0-9][0-9]:[0-9][0-9]:[0-9][0-9]
##TEST_AWK10|11
0
##TEST_AWK[0-9][0-9]:[0-9][0-9]:[0-9][0-9]
##TEST_AWK10|11
0
##TEST_AWK[0-9][0-9]:[0-9][0-9]:[0-9][0-9]
